[
    {
        "id" : 1,
        "nom": "Anonymous",
        "mail": "Ano@nym.ous",
        "interet": 1
    },
    {
        "id" : 2,
        "nom": "Anonymous",
        "mail": "Ano@nym.ous",
        "interet": 2
    },
    {
        "id" : 3,
        "nom": "Anonymous",
        "mail": "Ano@nym.ous",
        "interet": 2
    },
    {
        "id" : 4,
        "nom": "Anonymous",
        "mail": "Ano@nym.ous",
        "interet": 1
    }
]